<svg viewBox="0 0 300 300" fill="none" xmlns="http://www.w3.org/2000/svg">
    <g class="costaRicaOutline">
        <path class="costaRicaShadow" d="M28 63.5L38.5 66V69L48 71.5L45.5 82M32.5 100.5L36 107L38.5 119L45.5 127L52.5 134.5L68.5 136.5L74.5 140.5L83.5 150L87.5 156L91.5 153L95.5 146L99.5 143L106 138.5M77.5 109.5L89 114.5L97.5 119L101.5 124.5L114.5 128.5L115.5 134.5L121.5 140.5L119.5 146L121.5 153L128 158.5L140.5 160.5L151 165.5L162 171.5L175.5 177L188.5 187L196 199.5V204.5L193.5 211L188.5 218.5L185.5 224.5L196 232L208 235L218 238.5M204.5 215H213L221.5 218.5L228.5 222V228L232 232L227.5 240L238 247.5L247.5 262.5M238 240L249.5 235M247.5 208.5L257 204.5M247.5 153H254L261 156L267.5 160.5" stroke-width="5"/>
        <path class="costaRicaMain" d="M222.5 109.5L225.5 113.5L239 126.5L246.5 134.5L252.5 138.5L255 144L262 146L272 151L268.5 154V158.5L262 154L255 151H248.5V158.5L243 161V169.5V182L248.5 188.5L255 194L258 202.5L248.5 206.5V213L250.5 220L252.5 226L250.5 233L239 238L246.5 247.5L250.5 256L248.5 260.5L239 245.5L228.5 238L233 230L229.5 226V220L222.5 216.5L214 213H205.5V216.5L212 222.5L219 226V236.5L209 233L197 230L186.5 222.5L189.5 216.5L194.5 209L197 202.5V197.5L189.5 185L176.5 175L163 169.5L152 163.5L141.5 158.5L129 156.5L122.5 151L120.5 144L122.5 138.5L116.5 132.5L115.5 126.5L102.5 122.5L98.5 117L90 112.5L78.5 107.5L81.5 120L88.5 125L100.5 129.5L102.5 134.5L107 136.5L100.5 141L96.5 144L92.5 151L88.5 154L84.5 148L75.5 138.5L69.5 134.5L53.5 132.5L46.5 125L39.5 117L37 105L33.5 98.5L39.5 90.5V86H44.5L51.5 80H46.5L49 69.5L39.5 67V64L29 61.5L37 57.5H44.5L43 50.5L46.5 52.5L49 50.5L46.5 47.5L49 45L51.5 39H56L59.5 42L73.5 45L104.5 56.5L116.5 47.5L135 54.5H141.5L148 59L152 64L157.5 69.5L167.5 67L174 73L189.5 67L194.5 59L209 95.5L222.5 109.5Z" stroke-width="3"/>
    </g>
</svg>
