<svg viewBox="0 0 160 110" fill="none" xmlns="http://www.w3.org/2000/svg">
    <g class="fullCrownShieldLogo">
        <g class="fullCrown">
            <g class="fullCrownText">
                <path d="M13 26.0254C13.2812 23.3535 13.75 21.3438 14.4062 19.9961C15.6602 17.3945 17.5293 15.5488 20.0137 14.459C22.2285 13.4863 24.6367 13 27.2383 13C31.5977 13 34.7793 14.1953 36.7832 16.5859C37.9902 18.0039 38.6875 19.7676 38.875 21.877L39.0332 23.5293C38.834 23.7168 37.5742 23.8105 35.2539 23.8105L32.459 23.7754H32.2305L30.7012 23.7402L30.2793 23.7578H29.9277C29.5996 23.7578 29.3477 23.2773 29.1719 22.3164C29.0078 21.3555 28.75 20.7227 28.3984 20.418C28.0586 20.1016 27.6602 19.9434 27.2031 19.9434C26.7461 19.9434 26.3418 20.0254 25.9902 20.1895C25.6504 20.3535 25.3691 20.5527 25.1465 20.7871C24.9238 21.0098 24.7363 21.332 24.584 21.7539C24.3027 22.4805 24.1328 23.2539 24.0742 24.0742C24.0156 24.8828 23.9863 25.791 23.9863 26.7988V27.2207L23.916 28.9961C23.916 32.2305 24.8301 33.8828 26.6582 33.9531C27.127 33.9531 27.4551 33.8711 27.6426 33.707C28.1465 33.2617 28.5859 32.3652 28.9609 31.0176C29.043 30.7363 29.1426 30.5078 29.2598 30.332H29.9277L30.7363 30.3496H33.584L34.4453 30.332L36.1152 30.3496H37.1348L38.1719 30.3672H38.875C39.0156 30.3789 39.1152 30.502 39.1738 30.7363L39.1211 31.3164C39.0156 32.6992 38.6934 33.9531 38.1543 35.0781C37.1582 37.1406 35.5879 38.6758 33.4434 39.6836C31.3105 40.6797 28.9668 41.1777 26.4121 41.1777C21.9473 41.1777 18.5957 39.8594 16.3574 37.2227C14.1191 34.5859 13 30.8535 13 26.0254Z"/>
                <path d="M40.2637 18.9941L44.9395 18.9766H49.6152L50.002 21.332C50.2715 22.9844 50.4297 23.9219 50.4766 24.1445H51.0918C51.5254 22.1406 52.3574 20.7168 53.5879 19.873L54.291 19.4688C54.3262 19.3984 54.5371 19.2695 54.9238 19.082L54.8535 19.0996L55.2578 18.9414C56.4062 18.4844 57.3965 18.25 58.2285 18.2383C58.4043 18.2383 58.5215 18.25 58.5801 18.2734H59.2305V28.082C58.9844 28.0234 58.5977 27.9941 58.0703 27.9941C57.543 27.9941 56.998 28.0703 56.4355 28.2227C55.8848 28.375 55.416 28.5742 55.0293 28.8203C54.6543 29.0547 54.3262 29.3594 54.0449 29.7344C53.1777 30.8945 52.7441 32.6348 52.7441 34.9551L52.7793 36.8008V40.0352L46.5215 40.0527H40.2812L40.2637 29.5586V18.9941Z"/>
                <path d="M86.9336 29.4004C86.9102 29.5176 86.8984 29.5879 86.8984 29.6113V29.752C86.8633 31.6855 86.418 33.4258 85.5625 34.9727H85.5801C84.3848 36.8008 82.7148 38.207 80.5703 39.1914C78.4375 40.1758 76.334 40.668 74.2598 40.668C72.1855 40.668 70.4629 40.4629 69.0918 40.0527C67.7324 39.6543 66.4727 39.0684 65.3125 38.2949C64.1523 37.5215 63.291 36.7773 62.7285 36.0625C61.3926 34.375 60.7246 31.9902 60.7246 28.9082C60.7246 28.8027 60.7422 28.7148 60.7773 28.6445V28.3633C60.7422 28.3164 60.7246 28.2695 60.7246 28.2227L60.7598 28.0293H60.7422C60.9648 25.9785 61.3984 24.6309 62.043 23.9863C62.043 23.8574 62.125 23.7109 62.2891 23.5469V23.5645L62.5527 23.1426C63.9355 21.373 65.5176 20.1602 67.2988 19.5039L67.9141 19.2754C68.6875 18.9004 69.7715 18.6191 71.166 18.4316L71.7285 18.3789C71.8105 18.3672 71.9746 18.3555 72.2207 18.3438C72.4785 18.332 72.6602 18.3086 72.7656 18.2734L73.5215 18.291C73.5566 18.2793 73.5977 18.2734 73.6445 18.2734C73.6914 18.2734 73.7441 18.2793 73.8027 18.291L73.7852 18.2734C73.8555 18.3086 73.9609 18.3262 74.1016 18.3262C74.1484 18.2793 74.2305 18.2559 74.3477 18.2559C76.8906 18.2559 79.0527 18.7773 80.834 19.8203L81.1855 19.9785C85.0176 21.8184 86.9336 24.959 86.9336 29.4004ZM76 29.5059C75.9531 27.1738 75.6191 25.5977 74.998 24.7773C74.7402 24.4375 74.4238 24.2676 74.0488 24.2676C73.6855 24.2676 73.3633 24.4844 73.082 24.918C72.8008 25.3398 72.5723 26.0078 72.3965 26.9219C72.2324 27.8359 72.1504 28.6504 72.1504 29.3652C72.1504 30.0684 72.1797 30.6777 72.2383 31.1934C72.3086 31.6973 72.4082 32.2363 72.5371 32.8105C72.666 33.373 72.8652 33.8477 73.1348 34.2344C73.4043 34.6094 73.709 34.7969 74.0488 34.7969C75.3496 34.7969 76 33.0332 76 29.5059Z"/>
                <path d="M107.992 19.1875L109.293 27.5898H109.328C109.492 26.6992 109.703 25.4219 109.961 23.7578L110.242 21.9297L110.488 20.6289C110.57 19.832 110.652 19.2812 110.734 18.9766H122.248C121.568 22.1523 120.314 27.8887 118.486 36.1855L117.502 40.0527H106.322L105.936 37.1172C105.736 35.8281 105.525 34.2871 105.303 32.4941C105.092 30.6895 104.975 29.7871 104.951 29.7871L103.404 40.0527H91.5039C91.1055 38.2012 90.7012 35.957 90.291 33.3203C89.8809 30.6719 89.6348 29.0898 89.5527 28.5742L89.1836 26.2363C89.1836 26.2246 88.7734 23.7988 87.9531 18.959H93.8418L99.6953 18.9414C99.7188 19.2578 99.748 19.4922 99.7832 19.6445L99.8887 20.4004C100.311 24.0918 100.568 26.5527 100.662 27.7832H100.732C100.779 27.502 100.85 27.0332 100.943 26.377C101.037 25.709 101.113 25.1934 101.172 24.8301L102.033 19.6797L102.068 19.2227C103.346 19.1992 105.32 19.1875 107.992 19.1875Z"/>
                <path d="M128.049 19.0117L132.76 18.9941C132.818 19.2402 132.924 19.627 133.076 20.1543C133.229 20.6816 133.375 21.209 133.516 21.7363L133.85 23.0547C134.318 21.8711 134.605 21.2148 134.711 21.0859L134.992 20.7344C136.176 19.0703 137.992 18.2383 140.441 18.2383C141.602 18.2383 142.703 18.5898 143.746 19.293C144.801 19.9844 145.621 20.8926 146.207 22.0176C146.793 23.1309 147.086 24.3086 147.086 25.5508C147.086 25.6914 147.068 25.8027 147.033 25.8848V36.6953L147.051 40.0527H136.768L136.732 31.2637L136.803 29.4707C136.803 27.6777 136.328 26.7812 135.379 26.7812C134.359 26.7812 133.85 27.6309 133.85 29.3301C133.85 29.7051 133.855 29.9629 133.867 30.1035V30.3672L133.885 30.666V40.0352L128.646 40.0527H123.391L123.373 29.5059V18.9941L128.049 19.0117Z"/>
            </g>
        </g>
        <g class="fullShield">
            <g class="fullShieldText">
                <path d="M15.1582 84.6191L24.457 84.4609C24.6914 84.4609 24.8848 84.6602 25.0371 85.0586C25.2012 85.457 25.3594 85.7734 25.5117 86.0078C25.875 86.5703 26.4727 86.8516 27.3047 86.8516C28.1484 86.8516 28.8281 86.6582 29.3438 86.2715C29.8594 85.873 30.1172 85.3633 30.1172 84.7422C30.1172 84.1211 29.959 83.6992 29.6426 83.4766C29.3262 83.2422 28.9805 83.0195 28.6055 82.8086C28.2305 82.5859 27.6738 82.416 26.9355 82.2988C26.209 82.1816 25.8105 82.1113 25.7402 82.0879H25.7754L24.7734 81.8242C24.1289 81.707 23.5898 81.5781 23.1562 81.4375C20.3555 80.6875 18.3281 79.7441 17.0742 78.6074C15.832 77.4707 15.2109 75.9414 15.2109 74.0195C15.2109 72.625 15.4688 71.3711 15.9844 70.2578C16.5 69.1445 17.1738 68.2363 18.0059 67.5332C20.4082 65.5059 23.7246 64.4922 27.9551 64.4922C31.3184 64.4922 33.9609 65.1016 35.8828 66.3203H35.8652C37.0957 67.2109 37.9395 68.0898 38.3965 68.957C38.8535 69.8125 39.1406 70.873 39.2578 72.1387L38.8008 72.5957C35.7188 72.7129 32.9883 72.7715 30.6094 72.7715C29.8945 72.7715 29.4668 72.5605 29.3262 72.1387C29.2676 71.9629 29.2031 71.7871 29.1328 71.6113C28.9688 71.1895 28.4414 70.9785 27.5508 70.9785H27.4805C26.7891 70.9785 26.1973 71.1426 25.7051 71.4707C25.2129 71.7871 24.9609 72.0977 24.9492 72.4023C24.9492 72.707 25.0137 72.959 25.1426 73.1582C25.2832 73.3574 25.4297 73.5156 25.582 73.6328C25.7344 73.75 25.9688 73.873 26.2852 74.002C26.6016 74.1191 26.8359 74.2012 26.9883 74.248C27.1523 74.2832 27.4043 74.3477 27.7441 74.4414L28.3594 74.5996C28.6055 74.6699 29.3203 74.8457 30.5039 75.127C31.6992 75.4082 32.6953 75.6777 33.4922 75.9355V75.918C35.9883 76.7617 37.6875 77.8164 38.5898 79.082C39.5039 80.3359 39.9609 81.8008 39.9609 83.4766C39.9609 87.9414 37.2949 90.8359 31.9629 92.1602C30.416 92.5469 28.7637 92.8223 27.0059 92.9863C24.8496 92.9863 22.7168 92.6699 20.6074 92.0371C18.498 91.4043 17.0859 90.373 16.3711 88.9434C15.8906 88.252 15.5684 87.6191 15.4043 87.0449C15.2402 86.459 15.1055 85.6445 15 84.6016C15.0352 84.6133 15.0879 84.6191 15.1582 84.6191Z"/>
                <path d="M64.2891 80.1895L64.3066 85.6562V88.873L64.3242 91.8965H54.3398L54.3223 82.8965L54.375 80.9453C54.375 79.8789 54.2168 79.0879 53.9004 78.5723C53.5957 78.0449 53.2148 77.7812 52.7578 77.7812C51.8906 77.7812 51.3516 78.2148 51.1406 79.082C50.9883 79.6914 50.9121 80.4883 50.9121 81.4727V83.7227L50.9297 84.4609V91.8789L45.8848 91.8965H40.875L40.8574 78.1152V64.3164C43.2129 64.293 46.6055 64.2812 51.0352 64.2812L51.0527 73.1406C51.873 72.2148 52.8691 71.4766 54.041 70.9258C55.2246 70.375 56.3027 70.0996 57.2754 70.0996C58.248 70.0996 59.2031 70.334 60.1406 70.8027C61.0781 71.2715 61.8516 71.8926 62.4609 72.666C62.9766 73.4746 63.416 74.4531 63.7793 75.6016C64.1426 76.7383 64.3242 77.6875 64.3242 78.4492L64.2891 80.1895Z"/>
                <path d="M77.3848 64.1406L77.4023 68.957H66.5742C66.5742 67.832 66.5625 67.0293 66.5391 66.5488L66.5215 64.1758L77.3848 64.1406ZM66.3457 64.1758L66.5215 64V64.1758H66.3457ZM77.4551 86.3066L77.4727 86.4648L77.4902 89.1016C77.4902 89.582 77.4668 90.1562 77.4199 90.8242C77.373 91.4922 77.332 91.8379 77.2969 91.8613L76.9805 91.8965H70.582L69.8438 91.9668C68.0156 91.9668 66.9023 91.9434 66.5039 91.8965V91.7734L66.4863 91.4395V90.6484C66.4863 88.3398 66.5215 86.4238 66.5918 84.9004L66.7852 71.3652V70.8379L68.1562 70.8203L68.4551 70.8379H68.9648L69.4043 70.8555L69.6328 70.8379H70.8984L71.1621 70.8203L77.1562 70.8906C77.2031 70.8789 77.2383 70.873 77.2617 70.873C77.2852 70.873 77.2969 70.9082 77.2969 70.9785L77.3145 72.6484C77.3262 73.7617 77.3496 75.2559 77.3848 77.1309C77.4199 78.9941 77.4375 80.3125 77.4375 81.0859L77.4199 83.2832V84.2148L77.4727 85.1465V85.6914C77.4727 85.7031 77.4668 85.7266 77.4551 85.7617V86.3066Z"/>
                <path d="M88.582 70.3281C89.1094 70.1758 89.6719 70.0996 90.2695 70.0996C90.8672 70.0996 91.4355 70.123 91.9746 70.1699L92.7129 70.2402C93.873 70.3457 94.7637 70.4805 95.3848 70.6445V70.627L95.7539 70.7852C98.2148 71.5469 100.131 72.707 101.502 74.2656V74.248C101.818 74.623 102.205 75.1914 102.662 75.9531C103.131 76.7031 103.365 77.2246 103.365 77.5176L103.506 77.9922L103.594 78.502C103.816 79.2871 103.928 79.9434 103.928 80.4707C103.928 80.998 103.934 81.4023 103.945 81.6836H89.4609V82.2637C89.5312 82.5332 89.5664 82.8145 89.5664 83.1074C89.5664 83.4004 89.5664 83.6348 89.5664 83.8105C89.5781 83.9746 89.5957 84.1387 89.6191 84.3027C89.6426 84.4551 89.6543 84.584 89.6543 84.6895C89.666 84.7832 89.6953 84.9004 89.7422 85.041C89.7891 85.1699 89.8125 85.2578 89.8125 85.3047C89.8242 85.3516 89.8594 85.4453 89.918 85.5859C89.9883 85.7266 90.041 85.8613 90.0762 85.9902C90.123 86.1074 90.2051 86.2246 90.3223 86.3418V86.3242L90.5156 86.6934C90.7383 86.9395 91.043 87.1152 91.4297 87.2207C92.0742 87.0801 92.5078 86.7461 92.7305 86.2188C92.9648 85.6914 93.1582 85.0352 93.3105 84.25C93.7324 84.1328 94.3301 84.0742 95.1035 84.0742L97.3535 84.127H103.84C103.699 85.5566 103.277 86.8691 102.574 88.0645H102.592C101.982 89.0254 101.033 89.8516 99.7441 90.543C96.0996 91.8203 93.7617 92.459 92.7305 92.459C92.543 92.459 92.3906 92.4473 92.2734 92.4238H91.8691L91.7109 92.4414H91.5527C91.459 92.4414 91.3418 92.4297 91.2012 92.4062C91.084 92.4766 90.9434 92.5117 90.7793 92.5117L89.25 92.3359C89.168 92.3711 88.998 92.3887 88.7402 92.3887C88.4941 92.3887 87.8379 92.2305 86.7715 91.9141V91.9316L86.3496 91.8086L85.9277 91.668C84.1699 91.1523 82.6641 90.25 81.4102 88.9609C80.1562 87.6602 79.3535 86.1484 79.002 84.4258C78.9668 84.2148 78.9023 83.8984 78.8086 83.4766C78.7148 83.043 78.668 82.75 78.668 82.5977V81.7539C78.668 81.5547 78.6738 81.4023 78.6855 81.2969V81.0332C78.6855 78.5488 79.4238 76.4043 80.9004 74.5996C82.377 72.7832 84.3574 71.5059 86.8418 70.7676L87.2637 70.6445C87.8848 70.5391 88.3301 70.4277 88.5996 70.3105L88.582 70.3281ZM93.8379 79.3633L94.207 79.1348C94.0078 77.8691 93.8203 77.0605 93.6445 76.709C93.4688 76.3457 93.2988 76.0352 93.1348 75.7773C92.8301 75.2852 92.4258 75.0391 91.9219 75.0391C91.4297 75.0391 91.0078 75.2852 90.6562 75.7773C90.0352 76.6445 89.6426 77.8633 89.4785 79.4336C90.2285 79.3867 90.9199 79.3633 91.5527 79.3633H93.8379Z"/>
                <path d="M105.896 64.2812L110.361 64.2637C111.721 64.2637 113.83 64.2754 116.689 64.2988V91.8965H105.932L105.896 64.2812Z"/>
                <path d="M133.652 70.9961L133.705 69.2207V64.5625H138.943L144.217 64.5449C144.217 64.5449 144.223 73.6914 144.234 91.9844H135.27C135.023 91.5859 134.842 91.2168 134.725 90.877L134.021 89.6465C132.896 90.6426 131.836 91.3691 130.84 91.8262C129.855 92.2832 128.643 92.5117 127.201 92.5117C124.869 92.5117 122.906 91.5859 121.312 89.7344C119.719 87.8828 118.922 85.5098 118.922 82.6152C118.922 80.7051 119.139 78.9004 119.572 77.2012C120.041 75.5605 120.797 74.0312 121.84 72.6133C122.883 71.1836 124.242 70.375 125.918 70.1875L126.182 70.2051L127.676 70.0996C129.105 70.0996 130.729 70.7266 132.545 71.9805L132.914 72.209L132.896 72.1914C133.166 72.3672 133.336 72.4961 133.406 72.5781L133.951 72.332C133.752 71.7344 133.652 71.3242 133.652 71.1016V70.9961ZM129.891 81.8066L129.873 82.4219V82.9141C129.873 83.5586 129.996 84.2207 130.242 84.9004L130.225 84.8828C130.307 85.2344 130.541 85.6855 130.928 86.2363C131.314 86.7754 131.707 87.0449 132.105 87.0449C132.258 87.0449 132.381 87.0156 132.475 86.957C133.693 86.4297 134.303 84.7891 134.303 82.0352C134.303 80.125 133.986 78.6016 133.354 77.4648C132.967 76.7617 132.539 76.4102 132.07 76.4102C131.613 76.4102 131.209 76.7617 130.857 77.4648C130.213 78.7422 129.891 80.1895 129.891 81.8066Z"/>
            </g>
        </g>
        <path class="fullAmper" d="M85.5 54.5C85 56 80 60.5 76.5 59.5C69.5153 57.5044 82 48.5 82 46.5C82 44.5 81.5 43.5 80.5 43.5C79.5 43.5 76.5 43 75.5 46.5C74.5 50 85.5 61 85.5 61" stroke="white" stroke-width="3"/>
        <path class="fullContour" d="M153 104V53.5V6H5V104H153Z" stroke="white" stroke-width="3"/>
    </g>
</svg>
