<svg viewBox="0 0 100 100" fill="none" xmlns="http://www.w3.org/2000/svg">
    <g class="smallCrownShieldLogo">
        <g class="smallCrown">
            <path class="smallCText" d="M10 24.1963C10.3281 21.0791 10.875 18.7344 11.6406 17.1621C13.1035 14.127 15.2842 11.9736 18.1826 10.7021C20.7666 9.56738 23.5762 9 26.6113 9C31.6973 9 35.4092 10.3945 37.7471 13.1836C39.1553 14.8379 39.9688 16.8955 40.1875 19.3564L40.3721 21.2842C40.1396 21.5029 38.6699 21.6123 35.9629 21.6123L32.7021 21.5713H32.4355L30.6514 21.5303L30.1592 21.5508H29.749C29.3662 21.5508 29.0723 20.9902 28.8672 19.8691C28.6758 18.748 28.375 18.0098 27.9648 17.6543C27.5684 17.2852 27.1035 17.1006 26.5703 17.1006C26.0371 17.1006 25.5654 17.1963 25.1553 17.3877C24.7588 17.5791 24.4307 17.8115 24.1709 18.085C23.9111 18.3447 23.6924 18.7207 23.5146 19.2129C23.1865 20.0605 22.9883 20.9629 22.9199 21.9199C22.8516 22.8633 22.8174 23.9229 22.8174 25.0986V25.5908L22.7354 27.6621C22.7354 31.4355 23.8018 33.3633 25.9346 33.4453C26.4814 33.4453 26.8643 33.3496 27.083 33.1582C27.6709 32.6387 28.1836 31.5928 28.6211 30.0205C28.7168 29.6924 28.833 29.4258 28.9697 29.2207H29.749L30.6924 29.2412H34.0146L35.0195 29.2207L36.9678 29.2412H38.1572L39.3672 29.2617H40.1875C40.3516 29.2754 40.4678 29.4189 40.5361 29.6924L40.4746 30.3691C40.3516 31.9824 39.9756 33.4453 39.3467 34.7578C38.1846 37.1641 36.3525 38.9551 33.8506 40.1309C31.3623 41.293 28.6279 41.874 25.6475 41.874C20.4385 41.874 16.5283 40.3359 13.917 37.2598C11.3057 34.1836 10 29.8291 10 24.1963Z"/>
        </g>
        <g class="smallShield">
            <path class="smallSText" d="M61.1846 80.4814L72.0332 80.2969C72.3066 80.2969 72.5322 80.5293 72.71 80.9941C72.9014 81.459 73.0859 81.8281 73.2637 82.1016C73.6875 82.7578 74.3848 83.0859 75.3555 83.0859C76.3398 83.0859 77.1328 82.8604 77.7344 82.4092C78.3359 81.9443 78.6367 81.3496 78.6367 80.625C78.6367 79.9004 78.4521 79.4082 78.083 79.1484C77.7139 78.875 77.3105 78.6152 76.873 78.3691C76.4355 78.1094 75.7861 77.9111 74.9248 77.7744C74.0771 77.6377 73.6123 77.5557 73.5303 77.5283H73.5713L72.4023 77.2207C71.6504 77.084 71.0215 76.9336 70.5156 76.7695C67.248 75.8945 64.8828 74.7939 63.4199 73.4678C61.9707 72.1416 61.2461 70.3574 61.2461 68.1152C61.2461 66.4883 61.5469 65.0254 62.1484 63.7266C62.75 62.4277 63.5361 61.3682 64.5068 60.5479C67.3096 58.1826 71.1787 57 76.1143 57C80.0381 57 83.1211 57.7109 85.3633 59.1328H85.3428C86.7783 60.1719 87.7627 61.1973 88.2959 62.209C88.8291 63.207 89.1641 64.4443 89.3008 65.9209L88.7676 66.4541C85.1719 66.5908 81.9863 66.6592 79.2109 66.6592C78.377 66.6592 77.8779 66.4131 77.7139 65.9209C77.6455 65.7158 77.5703 65.5107 77.4883 65.3057C77.2969 64.8135 76.6816 64.5674 75.6426 64.5674H75.5605C74.7539 64.5674 74.0635 64.7588 73.4893 65.1416C72.915 65.5107 72.6211 65.873 72.6074 66.2285C72.6074 66.584 72.6826 66.8779 72.833 67.1104C72.9971 67.3428 73.168 67.5273 73.3457 67.6641C73.5234 67.8008 73.7969 67.9443 74.166 68.0947C74.5352 68.2314 74.8086 68.3271 74.9863 68.3818C75.1777 68.4229 75.4717 68.498 75.8682 68.6074L76.5859 68.792C76.873 68.874 77.707 69.0791 79.0879 69.4072C80.4824 69.7354 81.6445 70.0498 82.5742 70.3506V70.3301C85.4863 71.3145 87.4688 72.5449 88.5215 74.0215C89.5879 75.4844 90.1211 77.1934 90.1211 79.1484C90.1211 84.3574 87.0107 87.7344 80.79 89.2793C78.9854 89.7305 77.0576 90.0518 75.0068 90.2432C72.4912 90.2432 70.0029 89.874 67.542 89.1357C65.0811 88.3975 63.4336 87.1943 62.5996 85.5264C62.0391 84.7197 61.6631 83.9814 61.4717 83.3115C61.2803 82.6279 61.123 81.6777 61 80.4609C61.041 80.4746 61.1025 80.4814 61.1846 80.4814Z"/>
        </g>
        <path class="smallAmper" d="M60.5 49.5C60 50.5 51 59.5 47.5 55.5C43.8189 51.293 57.5 43 57.5 40C57.5 37 58 34 53.5 34C49 34 48.5 37.5 48.5 40C48.5 42.5 61 57 61 57" stroke="white" stroke-width="3"/>
        <path class="smallContour" d="M95 96.5V47V3.5H3.5V96.5H95Z" stroke="white" stroke-width="3"/>
    </g>
</svg>
